{

	"logoURI": "https://app.v2b.testnet.pulsex.com/images/tokens/0x07895912f3AB0E33aB3a4CEFbdf7a3e121eb9942.png",
	"chainId": 941,
	"address": "0x07895912f3AB0E33aB3a4CEFbdf7a3e121eb9942",
	"name": "PulseX",
	"symbol": "PLSX",
	"decimals": 18,
	"extensions": {
		"website":     "https://app.v2b.testnet.pulsex.com",
		"twitter":     "https://twitter.com/pulsexcom",
		"telegram":    "https://t.me/PulseXcom"
	},
	"tags": ["priority", "governance", "yield"]
}
